<?xml version="1.0" encoding="utf-8"?>
<!-- Generator: Adobe Illustrator 22.1.0, SVG Export Plug-In . SVG Version: 6.00 Build 0)  -->
<svg version="1.1" xmlns="http://www.w3.org/2000/svg" xmlns:xlink="http://www.w3.org/1999/xlink" x="0px" y="0px"
	 viewBox="0 0 24 24" style="enable-background:new 0 0 24 24;" xml:space="preserve">
<path d="M5.4,7.1C5.6,6.5,6.2,6,6.9,6h4.4v4.5h1.5V6h4.4c0.7,0,1.3,0.5,1.5,1.1l2.4,9c0.2,1-0.5,1.9-1.5,1.9h-6.8v-4.5h-1.5V18H4.5
	c-1,0-1.7-0.9-1.5-1.9L5.4,7.1z"/>
</svg>
