<?xml version="1.0" encoding="utf-8"?>
<!-- Generator: Adobe Illustrator 22.1.0, SVG Export Plug-In . SVG Version: 6.00 Build 0)  -->
<svg version="1.1" xmlns="http://www.w3.org/2000/svg" xmlns:xlink="http://www.w3.org/1999/xlink" x="0px" y="0px"
	 viewBox="0 0 24 24" style="enable-background:new 0 0 24 24;" xml:space="preserve">
<path d="M12,4c-3.3,0-6,2.8-6,6.2c0,4.2,5.4,10.4,5.6,10.7c0.2,0.2,0.6,0.2,0.8,0c0.2-0.3,5.6-6.4,5.6-10.7C18,6.8,15.3,4,12,4z
	 M12,13.3c-1.7,0-3-1.4-3-3.1c0-1.7,1.4-3.1,3-3.1s3,1.4,3,3.1C15,11.9,13.7,13.3,12,13.3z"/>
</svg>
