<?xml version="1.0" encoding="utf-8"?>
<!-- Generator: Adobe Illustrator 22.1.0, SVG Export Plug-In . SVG Version: 6.00 Build 0)  -->
<svg version="1.1" xmlns="http://www.w3.org/2000/svg" xmlns:xlink="http://www.w3.org/1999/xlink" x="0px" y="0px"
	 viewBox="0 0 24 24" style="enable-background:new 0 0 24 24;" xml:space="preserve">
<path d="M20.8,4H3.2C2,4,1,5,1,6.1l0,11.8C1,19,2,20,3.2,20h17.6c1.2,0,2.2-1,2.2-2.1V6.1C23,5,22,4,20.8,4z M20.8,8.2L12,13.6
	L3.2,8.2V6.1l8.8,5.3l8.8-5.3V8.2z"/>
</svg>
