<?xml version="1.0" encoding="utf-8"?>
<!-- Generator: Adobe Illustrator 22.1.0, SVG Export Plug-In . SVG Version: 6.00 Build 0)  -->
<svg version="1.1" xmlns="http://www.w3.org/2000/svg" xmlns:xlink="http://www.w3.org/1999/xlink" x="0px" y="0px"
	 viewBox="0 0 24 24" style="enable-background:new 0 0 24 24;" xml:space="preserve">
<path d="M18.7,6.7c0.1,0,0.2,0,0.2,0.1C19,6.8,19,6.9,19,7v0.7c0,0.1,0,0.2-0.1,0.2C18.9,8,18.8,8,18.7,8h-1v9.9
	c0,0.6-0.2,1.1-0.5,1.5c-0.3,0.4-0.7,0.6-1.1,0.6H7.9c-0.4,0-0.8-0.2-1.1-0.6c-0.3-0.4-0.5-0.9-0.5-1.5V8h-1C5.2,8,5.1,8,5.1,7.9
	C5,7.8,5,7.8,5,7.7V7c0-0.1,0-0.2,0.1-0.2c0.1-0.1,0.1-0.1,0.2-0.1h3.1l0.7-1.7c0.1-0.3,0.3-0.5,0.5-0.7C9.9,4.1,10.1,4,10.4,4h3.2
	c0.3,0,0.5,0.1,0.8,0.3c0.3,0.2,0.4,0.4,0.5,0.7l0.7,1.7H18.7z M10.4,5.3c-0.1,0-0.1,0.1-0.2,0.1L9.8,6.7h4.5l-0.5-1.2
	c0-0.1-0.1-0.1-0.2-0.1H10.4z M16.4,18.3c0-0.1,0.1-0.3,0.1-0.4h0V8H7.5v9.9c0,0.2,0,0.3,0.1,0.4c0,0.1,0.1,0.2,0.1,0.3
	c0,0.1,0.1,0.1,0.1,0.1h8.3c0,0,0.1,0,0.1-0.1C16.3,18.5,16.3,18.4,16.4,18.3z M9.8,16.7H9.1c-0.1,0-0.2,0-0.2-0.1
	c-0.1-0.1-0.1-0.1-0.1-0.2v-6c0-0.1,0-0.2,0.1-0.2C9,10,9,10,9.1,10h0.6c0.1,0,0.2,0,0.2,0.1c0.1,0.1,0.1,0.1,0.1,0.2v6
	c0,0.1,0,0.2-0.1,0.2C9.9,16.6,9.9,16.7,9.8,16.7z M11.7,16.7h0.6c0.1,0,0.2,0,0.2-0.1c0.1-0.1,0.1-0.1,0.1-0.2v-6
	c0-0.1,0-0.2-0.1-0.2C12.5,10,12.4,10,12.3,10h-0.6c-0.1,0-0.2,0-0.2,0.1c-0.1,0.1-0.1,0.1-0.1,0.2v6c0,0.1,0,0.2,0.1,0.2
	C11.5,16.6,11.6,16.7,11.7,16.7z M14.9,16.7h-0.6c-0.1,0-0.2,0-0.2-0.1c-0.1-0.1-0.1-0.1-0.1-0.2v-6c0-0.1,0-0.2,0.1-0.2
	c0.1-0.1,0.1-0.1,0.2-0.1h0.6c0.1,0,0.2,0,0.2,0.1c0.1,0.1,0.1,0.1,0.1,0.2v6c0,0.1,0,0.2-0.1,0.2C15,16.6,15,16.7,14.9,16.7z"/>
</svg>
