<?xml version="1.0" encoding="utf-8"?>
<!-- Generator: Adobe Illustrator 22.1.0, SVG Export Plug-In . SVG Version: 6.00 Build 0)  -->
<svg version="1.1" xmlns="http://www.w3.org/2000/svg" xmlns:xlink="http://www.w3.org/1999/xlink" x="0px" y="0px"
	 viewBox="0 0 24 24" style="enable-background:new 0 0 24 24;" xml:space="preserve">
<path d="M17.7,5.1C15,5,9,5,6.3,5.1C3.4,5.4,3,7.2,3,12s0.4,6.6,3.3,6.9C9,19,15,19,17.7,18.9c2.9-0.2,3.3-2,3.3-6.9
	C21,7.2,20.6,5.4,17.7,5.1z M9.8,15.1V8.9l6,3.1L9.8,15.1z"/>
</svg>
